20

5
a
b
c
d
e
1 2 3 4 5
2 1 3 4 5
3 1 2 4 5
1 3 2 4 5
2 3 1 4 5
3 2 1 4 5

5
a
b
c
d
e
1 2 3 4 5
2 1 3 4 5
3 1 2 4 5
1 3 2 4 5
2 3 1 4 5
3 2 1 4 5
1 2 3 4 5
1 2 3 4 5

3
a
b
c
1 2 3
3 2 1
3 1 2
3 2 1
3 1 2
2 1 3
2 3 1
2 3 1

2
a
b
1 2
1 2
2 1
2 1
1 2
2 1

1
a
1
1
1
1
1
1
1

1
a
1

4
a
b
c
d
1 2 3 4
2 1 3 4
3 2 4 1
4 2 3 1
1 2 4 3
2 4 3 1
3 1 2 4
4 3 2 1

3
a
b
c
1 2 3
1 2 3
1 2 3
1 2 3
1 2 3
1 2 3
1 2 3
1 2 3
3 2 1
3 2 1
3 2 1
3 2 1
2 3 1
1 3 2
2 1 3
1 3 2
2 1 3

2
a
b
2 1

10
a
b
c
d
e
f
g
h
i
j
1 2 3 4 5 6 7 8 9 10
2 3 4 5 6 7 8 9 10 1

4
t
u
v
w
4 2 3 1
2 3 4 1
2 4 1 3
2 1 3 4
3 2 1 4
3 4 2 1
3 1 4 2
4 2 1 3
1 4 2 3
1 3 2 4

1
sam
1
1
1
1
1

2
sam
pam
2 1
2 1
2 1
2 1

4
mat
bat
hat
rat
4 3 2 1
3 1 4 2
4 2 1 3
1 4 2 3
1 3 2 4

3
jo
ja
ju
2 1 3
2 3 1
2 1 3
3 2 1
1 3 2
1 2 3

4
al
pal
mal
sal
3 2 1 4
4 2 1 3
2 3 1 4
4 2 1 3
1 2 4 3
1 4 2 3
4 3 2 1
2 3 1 4
3 4 1 2

2
z
y
1 2
1 2
1 2
2 1
2 1
2 1

1
k
1
1
1
1
1
1
1
1
1
1
1

1
kam
1
1
1
1
1

2
bam
wam
2 1
2 1
1 2
1 2
2 1
1 2
2 1
2 1
